{
  "bosunbill": {
    "category": "neutral",
    "sounds": [
      {
        "name": "crodecraft:bosunbill",
        "stream": false
      }
    ]
  },
  "zoom": {
    "category": "neutral",
    "sounds": [
      {
        "name": "crodecraft:crackedout",
        "stream": false
      }
    ]
  },
  "robama_hurt": {
    "category": "neutral",
    "sounds": [
      {
        "name": "crodecraft:robama_hurt",
        "stream": false
      }
    ]
  },
  "fairybama_idle": {
    "category": "neutral",
    "sounds": [
      {
        "name": "crodecraft:fairydust",
        "stream": false
      }
    ]
  },
  "fairybama_hurt": {
    "category": "neutral",
    "sounds": [
      {
        "name": "crodecraft:fairybamahurt",
        "stream": false
      }
    ]
  },
  "robama_idle": {
    "category": "neutral",
    "sounds": [
      {
        "name": "crodecraft:robama_idle",
        "stream": false
      }
    ]
  },
  "whatsupdoc": {
    "category": "neutral",
    "subtitle": "subtitles.whatsupdoc",
    "sounds": [
      {
        "name": "crodecraft:bugsbunny",
        "stream": false
      }
    ]
  },
  "michaelhurt.ogg": {
    "category": "neutral",
    "sounds": [
      {
        "name": "crodecraft:michaelhurt",
        "stream": false
      }
    ]
  },
  "michaeldeath": {
    "category": "neutral",
    "sounds": [
      {
        "name": "crodecraft:michaeldeath",
        "stream": false
      }
    ]
  },
  "michaellivibing": {
    "category": "neutral",
    "subtitle": "subtitles.michaellivibing",
    "sounds": [
      {
        "name": "crodecraft:doodoofeces",
        "stream": false
      }
    ]
  }
}