{
  "parent": "block/cube",
  "textures": {
    "down": "crodecraft:blocks/beanstalktop",
    "up": "crodecraft:blocks/beanstalktop",
    "north": "crodecraft:blocks/beanstalk",
    "east": "crodecraft:blocks/beanstalk",
    "south": "crodecraft:blocks/beanstalk",
    "west": "crodecraft:blocks/beanstalk",
    "particle": "crodecraft:blocks/beanstalktop"
  }
}