{
  "parent": "block/cube",
  "textures": {
    "down": "crodecraft:blocks/creep_block",
    "up": "crodecraft:blocks/creep_block",
    "north": "crodecraft:blocks/creep_block",
    "east": "crodecraft:blocks/creep_block",
    "south": "crodecraft:blocks/creep_block",
    "west": "crodecraft:blocks/creep_block",
    "particle": "crodecraft:blocks/creep_block"
  }
}