{
  "_fv": 28,
  "_type": "plant",
  "definition": {
    "renderType": 120,
    "texture": "obama",
    "textureBottom": "",
    "customModelName": "Cross model",
    "itemTexture": "wali3",
    "particleTexture": "",
    "tintType": "Grass",
    "isItemTinted": true,
    "plantType": "normal",
    "staticPlantGenerationType": "Grass",
    "suspiciousStewEffect": "WITHER",
    "suspiciousStewDuration": 112,
    "growapableSpawnType": "Plains",
    "growapableMaxHeight": 3,
    "doublePlantGenerationType": "Flower",
    "customBoundingBox": false,
    "disableOffset": false,
    "boundingBoxes": [
      {
        "mx": 0.0,
        "my": 0.0,
        "mz": 0.0,
        "Mx": 16.0,
        "My": 16.0,
        "Mz": 16.0,
        "subtract": false
      }
    ],
    "name": "Obama",
    "specialInfo": [
      "it is not a plant"
    ],
    "creativeTab": {
      "value": "DECORATIONS"
    },
    "hardness": 0.0,
    "resistance": 0.0,
    "luminance": 0,
    "unbreakable": false,
    "isCustomSoundType": false,
    "soundOnStep": {
      "value": "ANVIL"
    },
    "breakSound": {
      "value": ""
    },
    "stepSound": {
      "value": ""
    },
    "placeSound": {
      "value": ""
    },
    "hitSound": {
      "value": ""
    },
    "fallSound": {
      "value": ""
    },
    "useLootTableForDrops": false,
    "customDrop": {
      "value": ""
    },
    "dropAmount": 1,
    "forceTicking": false,
    "emissiveRendering": false,
    "hasTileEntity": false,
    "isReplaceable": false,
    "colorOnMap": "DEFAULT",
    "creativePickItem": {
      "value": ""
    },
    "offsetType": "XZ",
    "aiPathNodeType": "DEFAULT",
    "flammability": 100,
    "fireSpreadSpeed": 60,
    "jumpFactor": 1.0,
    "speedFactor": 1.0,
    "canBePlacedOn": [],
    "frequencyOnChunks": 10,
    "spawnWorldTypes": [
      "Surface"
    ],
    "restrictionBiomes": [],
    "patchSize": 80,
    "generateAtAnyHeight": true
  }
}